{
  "kind": "notes#downSync",
  "fromVersion": "e33",
  "toVersion": "e37",
  "nodes": [
    {
      "kind": "notes#node",
      "id": "1437826259079.1133097714",
      "serverId": "1lEl2rDy1oMlkcJ6klYvzZSU22M9XsnqX-WDsX-lDpiQwYt9qM22IMeBRbiBVJeY",
      "parentId": "root",
      "type": "LIST",
      "timestamps": {
        "kind": "notes#timestamps",
        "created": "2015-07-25T12:10:59.080Z",
        "updated": "2015-07-25T12:11:55.750Z",
        "deleted": "1970-01-01T00:00:00.000Z",
        "trashed": "1970-01-01T00:00:00.000Z",
        "userEdited": "2015-07-25T12:11:55.750Z"
      },
      "title": "我是测试",
      "text": "",
      "blob": {
        "kind": "notes#blob"
      },
      "baseVersion": "12",
      "nodeSettings": {
        "newListItemPlacement": "BOTTOM",
        "checkedListItemsPolicy": "GRAVEYARD",
        "graveyardState": "EXPANDED"
      },
      "isArchived": false,
      "sortValue": "23068672"
    },
    {
      "kind": "notes#node",
      "id": "1437826304999.1574730981",
      "serverId": "12RAlLXVyH484AfM9vDmHDvBsPktpF1BjXbzB4LgRq5EYXbOGz-g4BBmDMQGJ8G8",
      "parentId": "1437826259079.1133097714",
      "parentServerId": "1lEl2rDy1oMlkcJ6klYvzZSU22M9XsnqX-WDsX-lDpiQwYt9qM22IMeBRbiBVJeY",
      "type": "LIST_ITEM",
      "timestamps": {
        "kind": "notes#timestamps",
        "created": "2015-07-25T12:11:44.999Z",
        "updated": "2015-07-25T12:11:54.589Z",
        "deleted": "1970-01-01T00:00:00.000Z",
        "trashed": "1970-01-01T00:00:00.000Z",
        "userEdited": "1970-01-01T00:00:00.000Z"
      },
      "text": "哦时间哦2",
      "checked": false,
      "blob": {
        "kind": "notes#blob"
      },
      "baseVersion": "2",
      "sortValue": "-1048576"
    },
    {
      "kind": "notes#node",
      "id": "1437826312793.955439505",
      "serverId": "1NkTOW1kHg_NlNcBjvzMqC4DNQvJE0j4h7Culn-cFrRpAJtvA_LgJwH9uS9Gtvw",
      "parentId": "1437826259079.1133097714",
      "parentServerId": "1lEl2rDy1oMlkcJ6klYvzZSU22M9XsnqX-WDsX-lDpiQwYt9qM22IMeBRbiBVJeY",
      "type": "LIST_ITEM",
      "timestamps": {
        "kind": "notes#timestamps",
        "created": "2015-07-25T12:11:52.793Z",
        "updated": "2015-07-25T12:11:55.748Z",
        "deleted": "1970-01-01T00:00:00.000Z",
        "trashed": "1970-01-01T00:00:00.000Z",
        "userEdited": "1970-01-01T00:00:00.000Z"
      },
      "text": "c",
      "checked": false,
      "blob": {
        "kind": "notes#blob"
      },
      "baseVersion": "1",
      "sortValue": "-2097152"
    }
  ],
  "truncated": false,
  "upgradeRecommended": false
}
